{
  "project_info": {
    "project_number": "564216774639",
    "firebase_url": "https://bdayapp-28a95.firebaseio.com",
    "project_id": "bdayapp-28a95",
    "storage_bucket": "bdayapp-28a95.appspot.com"
  },
  "client": [
    {
      "client_info": {
        "mobilesdk_app_id": "1:564216774639:android:e1ef53cecc4c371ca0801a",
        "android_client_info": {
          "package_name": "dam.eet.uvigo"
        }
      },
      "oauth_client": [
        {
          "client_id": "564216774639-17h93ron6cin6d4472pif5csiuphtu64.apps.googleusercontent.com",
          "client_type": 1,
          "android_info": {
            "package_name": "dam.eet.uvigo",
            "certificate_hash": "e7b81b3e2d3e6b289d90f6c8e2529e7e665cebf2"
          }
        },
        {
          "client_id": "564216774639-8lq8qkan6bgcbub1d7ejgqmgt8c7eb94.apps.googleusercontent.com",
          "client_type": 1,
          "android_info": {
            "package_name": "dam.eet.uvigo",
            "certificate_hash": "769d7b818527ba217c097e576fff8bade7ad0c4a"
          }
        },
        {
          "client_id": "564216774639-lse3a4lde6hcj791upl35gkk4vsjpbb5.apps.googleusercontent.com",
          "client_type": 1,
          "android_info": {
            "package_name": "dam.eet.uvigo",
            "certificate_hash": "55d1efe85d47e96aa1ad3efc7242ef002c7d3627"
          }
        },
        {
          "client_id": "564216774639-rviairu4mihcq0fb7pjqqme1rig7uekf.apps.googleusercontent.com",
          "client_type": 3
        }
      ],
      "api_key": [
        {
          "current_key": "AIzaSyCbWrwzMw-AM2YQHFQO5P0uVJ4YEcinbDo"
        }
      ],
      "services": {
        "appinvite_service": {
          "other_platform_oauth_client": [
            {
              "client_id": "564216774639-rviairu4mihcq0fb7pjqqme1rig7uekf.apps.googleusercontent.com",
              "client_type": 3
            }
          ]
        }
      }
    }
  ],
  "configuration_version": "1"
}